…
``` r
#Pregunta 2.1
meses_con_mas_llamadas <- data %>%
  group_by(Cod, Mes = month(`Fecha Creación`, label = TRUE)) %>%
  summarize(Cantidad = sum(Call), .groups = "drop") %>%
  arrange(Cod, desc(Cantidad))
print(meses_con_mas_llamadas)
```

    ## # A tibble: 72 × 3
    ##    Cod                          Mes   Cantidad
    ##    <chr>                        <ord>    <dbl>
    ##  1 Actualización de Información may        314
    ##  2 Actualización de Información mar        306
    ##  3 Actualización de Información dic        300
    ##  4 Actualización de Información ago        298
    ##  5 Actualización de Información oct        290
    ##  6 Actualización de Información jul        289
    ##  7 Actualización de Información nov        289
    ##  8 Actualización de Información ene        284
    ##  9 Actualización de Información sep        272
    ## 10 Actualización de Información jun        265
    ## # ℹ 62 more rows
…
# Selecciona las columnas deseadas
cols %>% select(carrier, deptime, arrtime, schdarr, schdep)
```

    ## # A tibble: 336,776 × 5
    ##    carrier deptime       arrtime       schdarr        schdep       
    ##    <chr>   <chr>         <chr>         <chr>          <chr>        
    ##  1 UA      2013:1:1:5:17 2013:1:1:8:30 2013:1:1:8:19  2013:1:1:5:15
    ##  2 UA      2013:1:1:5:33 2013:1:1:8:50 2013:1:1:8:30  2013:1:1:5:29
    ##  3 AA      2013:1:1:5:42 2013:1:1:9:23 2013:1:1:8:50  2013:1:1:5:40
    ##  4 B6      2013:1:1:5:44 2013:1:1:10:4 2013:1:1:10:22 2013:1:1:5:45
    ##  5 DL      2013:1:1:5:54 2013:1:1:8:12 2013:1:1:8:37  2013:1:1:6:0 
    ##  6 UA      2013:1:1:5:54 2013:1:1:7:40 2013:1:1:7:28  2013:1:1:5:58
    ##  7 B6      2013:1:1:5:55 2013:1:1:9:13 2013:1:1:8:54  2013:1:1:6:0 
    ##  8 EV      2013:1:1:5:57 2013:1:1:7:9  2013:1:1:7:23  2013:1:1:6:0 
    ##  9 B6      2013:1:1:5:57 2013:1:1:8:38 2013:1:1:8:46  2013:1:1:6:0 
    ## 10 AA      2013:1:1:5:58 2013:1:1:7:53 2013:1:1:7:45  2013:1:1:6:0 
    ## # ℹ 336,766 more rows
…
